module gitlab.com/proctorexam/media-recorder-api

go 1.21.3

require (
	github.com/at-wat/ebml-go v0.17.0
	github.com/aws/aws-sdk-go-v2 v1.24.1
	github.com/aws/aws-sdk-go-v2/config v1.26.3
	github.com/aws/aws-sdk-go-v2/feature/s3/manager v1.15.11
	github.com/aws/aws-sdk-go-v2/service/s3 v1.48.0
)

require (
	github.com/aws/aws-sdk-go-v2/aws/protocol/eventstream v1.5.4 // indirect
	github.com/aws/aws-sdk-go-v2/credentials v1.16.14 // indirect
	github.com/aws/aws-sdk-go-v2/feature/ec2/imds v1.14.11 // indirect
	github.com/aws/aws-sdk-go-v2/internal/configsources v1.2.10 // indirect
	github.com/aws/aws-sdk-go-v2/internal/endpoints/v2 v2.5.10 // indirect
	github.com/aws/aws-sdk-go-v2/internal/ini v1.7.2 // indirect
	github.com/aws/aws-sdk-go-v2/internal/v4a v1.2.10 // indirect
	github.com/aws/aws-sdk-go-v2/service/internal/accept-encoding v1.10.4 // indirect
	github.com/aws/aws-sdk-go-v2/service/internal/checksum v1.2.10 // indirect
	github.com/aws/aws-sdk-go-v2/service/internal/presigned-url v1.10.10 // indirect
	github.com/aws/aws-sdk-go-v2/service/internal/s3shared v1.16.10 // indirect
	github.com/aws/aws-sdk-go-v2/service/sso v1.18.6 // indirect
	github.com/aws/aws-sdk-go-v2/service/ssooidc v1.21.6 // indirect
	github.com/aws/aws-sdk-go-v2/service/sts v1.26.7 // indirect
	github.com/aws/smithy-go v1.19.0 // indirect
	github.com/jmespath/go-jmespath v0.4.0 // indirect
)
